<?xml version="1.0" encoding="utf-8"?>
<!-- Generator: Adobe Illustrator 18.0.0, SVG Export Plug-In . SVG Version: 6.00 Build 0)  -->
<!DOCTYPE svg PUBLIC "-//W3C//DTD SVG 1.1//EN" "http://www.w3.org/Graphics/SVG/1.1/DTD/svg11.dtd">
<svg version="1.1" id="Layer_1" xmlns="http://www.w3.org/2000/svg" xmlns:xlink="http://www.w3.org/1999/xlink" x="0px" y="0px"
	 width="20px" height="20px" viewBox="0 0 20 20" enable-background="new 0 0 20 20" xml:space="preserve">
<g>
	<path fill="#051842" d="M4.5,2.2c0,1.2-0.9,2.1-2.2,2.1C0.9,4.4,0,3.4,0,2.2c0-1.1,0.9-2.1,2.2-2.1S4.5,1.1,4.5,2.2z M0.1,19.9V6
		h4.2v13.9H0.1z"/>
	<path fill="#051842" d="M7,10.5C7,8.8,7,7.3,6.9,6h3.7l0.2,2H11c0.6-0.9,2-2.2,4.2-2.2c2.9,0,4.8,1.9,4.8,6v8.2h-4.2v-7.7
		c0-1.7-0.6-3-2.1-3c-1.1,0-1.9,0.9-2.2,1.6c-0.2,0.2-0.2,0.6-0.2,1.1v8H7V10.5z"/>
</g>
<rect x="0" fill="none" width="20" height="20"/>
</svg>
