<?xml version="1.0" encoding="utf-8"?>
<!-- Generator: Adobe Illustrator 18.1.1, SVG Export Plug-In . SVG Version: 6.00 Build 0)  -->
<svg version="1.1" id="Layer_1" xmlns="http://www.w3.org/2000/svg" xmlns:xlink="http://www.w3.org/1999/xlink" x="0px" y="0px"
	 viewBox="-295 387 20 20" enable-background="new -295 387 20 20" xml:space="preserve">
<rect x="-295" y="387" fill="none" width="20" height="20"/>
<polygon fill="#051842" points="-295,396.5 -283.6,396.5 -287.7,392.4 -286.9,391.7 -281.6,397 -286.9,402.3 -287.7,401.6 
	-283.6,397.5 -295,397.5 -295,407 -275,407 -275,387 -295,387 "/>
</svg>
