<?xml version="1.0" encoding="utf-8"?>
<!-- Generator: Adobe Illustrator 18.0.0, SVG Export Plug-In . SVG Version: 6.00 Build 0)  -->
<!DOCTYPE svg PUBLIC "-//W3C//DTD SVG 1.1//EN" "http://www.w3.org/Graphics/SVG/1.1/DTD/svg11.dtd">
<svg version="1.1" id="Layer_1" xmlns="http://www.w3.org/2000/svg" xmlns:xlink="http://www.w3.org/1999/xlink" x="0px" y="0px"
	 width="20px" height="20px" viewBox="0 0 20 20" enable-background="new 0 0 20 20" xml:space="preserve">
<rect x="0" fill="none" width="20" height="20"/>
<g>
	<path fill="#051842" d="M10,0C10,0,10,0,10,0C10,0,10,0,10,0C10,0,10,0,10,0C4.5,0,0,4.5,0,10c0,5.5,4.5,10,10,10c0,0,0,0,0,0
		c0,0,0,0,0,0c0,0,0,0,0,0c5.5,0,10-4.5,10-10C20,4.5,15.5,0,10,0z M10,19.2L10,19.2L10,19.2c-5.1,0-9.2-4.1-9.2-9.2S4.9,0.8,10,0.8
		l0,0h0c5.1,0,9.2,4.1,9.2,9.2C19.2,15.1,15.1,19.2,10,19.2z"/>
	<path fill="#051842" d="M16,4.1c-1.1-1.1-2.5-1.9-4-2.3c0.7,0.7,1.3,1.9,1.7,3.2C14.5,4.8,15.3,4.5,16,4.1z"/>
	<path fill="#051842" d="M10.4,1.7v3.9c0.9,0,1.8-0.1,2.6-0.3C12.3,3.3,11.4,2,10.4,1.7z"/>
	<path fill="#051842" d="M13.2,6c-0.9,0.2-1.8,0.3-2.8,0.4v3.3h3.3C13.6,8.3,13.4,7,13.2,6z"/>
	<path fill="#051842" d="M7,5.2c0.8,0.2,1.7,0.3,2.6,0.3V1.7C8.6,1.9,7.6,3.2,7,5.2z"/>
	<path fill="#051842" d="M13.6,10.4h-3.3v3.3c1,0,1.9,0.2,2.8,0.4C13.4,13,13.6,11.7,13.6,10.4z"/>
	<path fill="#051842" d="M14.4,9.6h4c-0.1-1.9-0.8-3.6-1.9-4.9c-0.8,0.5-1.7,0.8-2.6,1.1C14.2,6.9,14.4,8.2,14.4,9.6z"/>
	<path fill="#051842" d="M6.8,14c0.9-0.2,1.8-0.3,2.8-0.4v-3.3H6.3C6.3,11.7,6.5,13,6.8,14z"/>
	<path fill="#051842" d="M6.3,9.6h3.3V6.3c-1,0-1.9-0.2-2.8-0.4C6.5,7,6.3,8.3,6.3,9.6z"/>
	<path fill="#051842" d="M8,1.8C6.5,2.2,5.1,3,4,4.1c0.7,0.4,1.5,0.7,2.3,0.9C6.7,3.7,7.3,2.6,8,1.8z"/>
	<path fill="#051842" d="M11.9,18.2c1.6-0.4,2.9-1.2,4-2.3c-0.7-0.4-1.5-0.7-2.3-1C13.3,16.3,12.7,17.4,11.9,18.2z"/>
	<path fill="#051842" d="M13.9,14.2c0.9,0.3,1.8,0.6,2.6,1.1c1.1-1.4,1.8-3.1,1.9-4.9h-4C14.4,11.8,14.2,13.1,13.9,14.2z"/>
	<path fill="#051842" d="M10.4,14.4v3.9c1-0.3,2-1.6,2.6-3.6C12.1,14.5,11.3,14.4,10.4,14.4z"/>
	<path fill="#051842" d="M6.1,5.8C5.2,5.5,4.3,5.1,3.5,4.7C2.4,6,1.7,7.7,1.6,9.6h4C5.6,8.2,5.8,6.9,6.1,5.8z"/>
	<path fill="#051842" d="M9.6,18.3v-3.9c-0.9,0-1.8,0.1-2.6,0.4C7.6,16.8,8.6,18.1,9.6,18.3z"/>
	<path fill="#051842" d="M5.6,10.4h-4c0.1,1.9,0.8,3.6,1.9,4.9c0.8-0.4,1.7-0.8,2.6-1.1C5.8,13.1,5.6,11.8,5.6,10.4z"/>
	<path fill="#051842" d="M4,15.9c1.1,1.1,2.5,1.9,4,2.3c-0.7-0.7-1.3-1.9-1.7-3.2C5.5,15.2,4.7,15.5,4,15.9z"/>
</g>
</svg>
