<?xml version="1.0" encoding="utf-8"?>
<!-- Generator: Adobe Illustrator 18.0.0, SVG Export Plug-In . SVG Version: 6.00 Build 0)  -->
<!DOCTYPE svg PUBLIC "-//W3C//DTD SVG 1.1//EN" "http://www.w3.org/Graphics/SVG/1.1/DTD/svg11.dtd">
<svg version="1.1" id="Layer_1" xmlns="http://www.w3.org/2000/svg" xmlns:xlink="http://www.w3.org/1999/xlink" x="0px" y="0px"
	 width="20px" height="20px" viewBox="0 0 20 20" enable-background="new 0 0 20 20" xml:space="preserve">
<rect x="0" fill="none" width="20" height="20"/>
<g>
	<path fill="#051842" d="M17.3,0.4V3H20v1.4h-2.8V7h-1.4V4.4h-2.8V3.1h2.8V0.4H17.3z"/>
	<g>
		<g>
			<path id="SVGID_1_" fill="#051842" d="M6.4,20C2.6,20,0,18.5,0,16.2s2.4-4.8,5.9-4.8c0.2,0,0.4,0,0.5,0c0.1,0,0.1,0,0.2,0
				C6.4,11.2,6,10.9,6,10.2c0-0.4,0.1-0.6,0.2-1c-0.1,0-0.2,0-0.4,0c-2.8,0-4.6-1.9-4.6-4.5C1.3,2.2,3.9,0,6.9,0H13l-1.5,1.6h-1.1
				c0.9,0.6,1.4,1.9,1.4,3.1S11.1,7,10,8C9,8.8,8.9,9,8.9,9.6c0,0.5,1,1.2,1.5,1.6l0.1,0.1c2,1.5,2.4,2.5,2.4,4.1
				C12.9,17.8,10.4,20,6.4,20 M6.6,12.5c-2.2,0-4.1,1.5-4.1,3.1c0,1.8,1.8,3.1,3.9,3.1c2.9,0,4.4-1,4.4-3c0-0.2,0-0.4-0.1-0.6
				c-0.2-0.8-1-1.2-2-2c-0.1-0.1-0.4-0.2-0.5-0.4C7.8,12.6,7.3,12.5,6.6,12.5L6.6,12.5z M6,1.3c-0.6,0-1.1,0.3-1.5,0.6
				C3.9,2.5,3.6,3.5,3.8,4.6C4,6.5,5.4,8,7,8h0.1c0.6,0,1.1-0.2,1.5-0.6c0.5-0.6,0.8-1.5,0.5-2.6C8.9,2.9,7.5,1.3,6,1.3L6,1.3z"/>
		</g>
	</g>
</g>
</svg>
